1;Hamburg;0.444;1;1;100;1454284800;
2;Kiel;1;0.444;1;100;1454284800;
3;Kiel;1;1;0.444;100.5;1454284800;
4;Duisburg;1;1;1;1.500;1454284800;
5;Bremerhaven;1.5;1.5;1.5;100;1454284800;
6;Hamburg;  1;1;1;100;1454284800;
7;Kiel;1;  1;1;100;1454284800;
8;Kiel;1;1;   1;100.5;1454284800;
9;Duisburg;1;1;1;  100;1454284800;
10;Bremerhaven;1  ;1;1;100;1454284800;
11;Bremerhaven;1;1  ;1;100;1454284800;
12;Bremerhaven;1;1;1  ;100;1454284800;
13;Bremerhaven;1;1;1;100  ;1454284800;
14;Bremerhaven;1;1;1;100;   1454284800;
15;Bremerhaven;1;1;1;100;1454284800    ;